0.296967,0.458008 0.145163,0.453574 0.134258,0.165102 0.577735,0.673721 0.299581,0.656602 0.411957,0.545474 0.638809,0.212769 0.402315,0.58369 0.69618,0.244117 0.275131,0.0398539 0.0388365,0.354108 0.517855,0.0226171 0.0670766,0.173838 0.656515,0.349135 0.969579,0.282517 0.498582,0.664941 0.524157,0.172634 0.0823809,0.442015 0.674258,0.197093 0.927659,0.2457 0.154814,0.277135 0.186624,0.234472 0.52453,0.476765 0.587719,0.24898 0.195077,0.518889 0.29382,0.213213 0.18497,0.205497 0.389314,0.144892 0.630673,0.376219 0.252071,0.159311 0.473758,0.432261 0.641484,0.418523 0.592704,0.486116 0.125241,0.478061 0.261364,0.00468476 0.934802,0.220784 0.563237,0.632375 0.345889,0.44651 0,0.290373 0.573492,0.27638 0.295068,0.0633402 0.495908,0.461105 0.662776,0.104368 0.034584,0.293537 0.525316,0.644158 0.258532,0.249689 0.0589742,0.280409 0.630143,0 0.272743,0.177472 0.618558,0.457738 0.650404,0.12541 0.243961,0.511652 0.565088,0.597535 0.380209,0.47847 0.410385,0.111048 0.171008,0.155874 0.562609,0.314665 0.0855643,0.0442012 0.184995,0.113067 0.2111,0.0762539 0.926307,0.345307 0.51595,0.591628 0.670978,0.0604245 0.690915,0.430156 0.883462,0.324864 0.704776,0.108688 0.210011,0.565678 0.965632,0.325082 0.160686,0.507719 0.794254,0.325105 0.457415,0.36745 0.799415,0.252348 0.399247,0.500054 0.61639,0.632445 0.322739,0.356303 0.785359,0.16782 0.796882,0.129107 0.88227,0.290741 0.782407,0.206304 0.605815,0.0870487 0.85457,0.504787 0.108758,0.0763361 0.719331,0.000900396 1,0.357002 0.344482,0.402772 0.0659941,0.211601 0.878414,0.538548 0.422389,0.30296 0.518139,0.125482 0.862512,0.472992 0.823017,0.50113 0.736818,0.0841067 0.431377,0.328482 0.420342,0.260055 0.65496,0.0163236 
1 1 1 1 2 2 2 2 2 1 1 1 1 2 2 1 0 1 2 2 1 1 2 2 2 3 1 2 2 3 2 2 2 1 1 2 1 2 1 2 3 2 2 1 1 3 1 2 3 2 2 2 2 2 0 1 1 3 1 0 2 2 0 2 2 0 0 2 1 2 3 2 2 2 3 2 0 2 2 2 3 3 0 2 3 1 0 3 0 3 3 0 3 3 0 
4


2000
10000
0.65
3
2
50 54 64 101 105 115 117 122 123 216 223 276 292 296 345 389 442 447 457 460 505 633 726 728 731 748 862 978 1092 1124 1204 1293 1294 1303 1317 1407 1409 1412 1431 1525 1577 1636 1638 1642 1691 1704 1754 1804 1820 1862 1864 1867 1974 1979 2047 2109 2226 2256 2268 2382 2429 2431 2432 2501 2544 2655 2664 2882 2892 2998 3135 3224 3226 3253 3338 3678 3707 3789 3794 3795 4129 4250 4842 5036 5039 5178 5375 5386 5746 5943 6202 6395 6537 7311 7336 
