\relax 
\providecommand\hyper@newdestlabel[2]{}
\providecommand\HyperFirstAtBeginDocument{\AtBeginDocument}
\HyperFirstAtBeginDocument{\ifx\hyper@anchor\@undefined
\global\let\oldcontentsline\contentsline
\gdef\contentsline#1#2#3#4{\oldcontentsline{#1}{#2}{#3}}
\global\let\oldnewlabel\newlabel
\gdef\newlabel#1#2{\newlabelxx{#1}#2}
\gdef\newlabelxx#1#2#3#4#5#6{\oldnewlabel{#1}{{#2}{#3}}}
\AtEndDocument{\ifx\hyper@anchor\@undefined
\let\contentsline\oldcontentsline
\let\newlabel\oldnewlabel
\fi}
\fi}
\global\let\hyper@last\relax 
\gdef\HyperFirstAtBeginDocument#1{#1}
\providecommand\HyField@AuxAddToFields[1]{}
\providecommand\HyField@AuxAddToCoFields[2]{}
\citation{lib:bioinf}
\citation{lib:bioinf}
\citation{lib:maldireview}
\@writefile{toc}{\contentsline {section}{\numberline {I}Einleitung}{1}{section.1}}
\@writefile{toc}{\contentsline {section}{\numberline {II}Bisherige Methoden}{1}{section.2}}
\@writefile{toc}{\contentsline {section}{\numberline {III}Im Projekt verwendete Methoden}{1}{section.3}}
\@writefile{toc}{\contentsline {subsection}{\numberline {\unhbox \voidb@x \hbox {III-A}}Stochastic Neighbour Embedding}{1}{subsection.3.1}}
\@writefile{toc}{\contentsline {subsubsection}{\numberline {\unhbox \voidb@x \hbox {III-A}1}Grundlagen}{1}{subsubsection.3.1.1}}
\citation{lib:tsne}
\citation{lib:flann}
\citation{lib:flann}
\citation{monte-carlo}
\citation{lib:hsne}
\@writefile{toc}{\contentsline {subsubsection}{\numberline {\unhbox \voidb@x \hbox {III-A}2}t-SNE}{2}{subsubsection.3.1.2}}
\@writefile{toc}{\contentsline {subsubsection}{\numberline {\unhbox \voidb@x \hbox {III-A}3}Hierachisches SNE}{2}{subsubsection.3.1.3}}
\citation{lib:cyteguide}
\@writefile{toc}{\contentsline {subsubsection}{\numberline {\unhbox \voidb@x \hbox {III-A}4}Implementierung}{3}{subsubsection.3.1.4}}
\@writefile{toc}{\contentsline {subsection}{\numberline {\unhbox \voidb@x \hbox {III-B}}Ansicht - CyteGuide}{3}{subsection.3.2}}
\@writefile{lof}{\contentsline {figure}{\numberline {1}{\ignorespaces CyteGuide - Ansicht}}{3}{figure.1}}
\newlabel{fig:cyteguide}{{1}{3}{CyteGuide - Ansicht}{figure.1}{}}
\@writefile{toc}{\contentsline {subsection}{\numberline {\unhbox \voidb@x \hbox {III-C}}Ansicht - Spektrum}{4}{subsection.3.3}}
\@writefile{lof}{\contentsline {figure}{\numberline {2}{\ignorespaces Spectrum - Ansicht}}{4}{figure.2}}
\newlabel{fig:spectrum}{{2}{4}{Spectrum - Ansicht}{figure.2}{}}
\@writefile{toc}{\contentsline {subsection}{\numberline {\unhbox \voidb@x \hbox {III-D}}Ansicht - Image}{4}{subsection.3.4}}
\@writefile{lof}{\contentsline {figure}{\numberline {3}{\ignorespaces Image - Ansicht}}{4}{figure.3}}
\newlabel{fig:image}{{3}{4}{Image - Ansicht}{figure.3}{}}
\@writefile{toc}{\contentsline {subsection}{\numberline {\unhbox \voidb@x \hbox {III-E}}Ansicht - Boxlot}{4}{subsection.3.5}}
\@writefile{lof}{\contentsline {figure}{\numberline {4}{\ignorespaces Boxplot - Ansicht}}{4}{figure.4}}
\newlabel{fig:boxplot}{{4}{4}{Boxplot - Ansicht}{figure.4}{}}
\@writefile{toc}{\contentsline {subsection}{\numberline {\unhbox \voidb@x \hbox {III-F}}Ansicht - Parallele Koordinaten}{4}{subsection.3.6}}
\@writefile{lof}{\contentsline {figure}{\numberline {5}{\ignorespaces Parallel Coordinates - Ansicht}}{4}{figure.5}}
\newlabel{fig:parallelcoordinates}{{5}{4}{Parallel Coordinates - Ansicht}{figure.5}{}}
\bibcite{lib:maldireview}{1}
\bibcite{lib:bioinf}{2}
\bibcite{lib:tsne}{3}
\bibcite{lib:hsne}{4}
\bibcite{lib:cyteguide}{5}
\bibcite{lib:flann}{6}
\bibcite{lib:barnes-hut}{7}
\bibcite{lib:monte-carlo}{8}
\@writefile{toc}{\contentsline {section}{\numberline {IV}Fazit}{5}{section.4}}
\@writefile{toc}{\contentsline {section}{References}{5}{section*.2}}
