0.493311,0.564303 0.493615,0.553058 0.517559,0.728736 0.123733,0.922238 0.537387,0.55271 0.310162,0.94673 0.448857,0.528578 0.699159,0.546045 0.431782,0.507966 0.287171,0.948479 0,0.556203 0.420754,0.808724 0.360294,0.681731 0.522657,0.579309 0.855355,0.666285 0.390623,0.711582 0.815504,0.550588 0.412844,0.376265 0.918357,0.53734 0.50501,0.692427 0.757242,0.56477 0.777735,0.684463 0.648263,0.492438 0.151396,0.974136 0.487057,0.645329 0.443737,0.402233 0.940585,0.57021 0.701031,0.57716 0.0712081,0.54371 0.689141,0.603643 0.350676,0.716106 0.534011,0.599308 0.468832,0.628298 0.787055,0.679944 0.395441,0.0320383 0.43199,0.831443 0.7367,0.53953 0.672575,0.612292 0.271543,0.959624 0.451934,0.130464 0.041813,0.336539 0.220048,0.780721 0.685029,0.713717 0.128411,0.260253 0.434924,0.365088 0.460823,0.718234 0.831928,0.548241 0.249867,0.729257 0.44709,0.634241 0.468032,0.598073 0.266425,0.788244 0.209508,0.765612 0.182897,0.972156 0.519883,0.686855 0.267755,0.984253 0.577424,0.298327 0.40651,0.601238 0.0386972,0.596395 0.745464,0.530298 0.482516,0.706025 0.107655,0.91826 0.695392,0.717342 0.215661,0.938309 0.410603,0.798654 0.312805,0.893932 0.188369,0.587848 0.52669,0.333971 0.644801,0.456956 0.560795,0.310601 0.36008,0.631326 0.93092,0.599142 0.71052,0.611636 0.0536234,0.589966 0.138699,0.707922 0.55873,0.696765 0.378141,0.014036 0.0486791,0.314025 0.934251,0.625404 0.903882,0.534606 0.304035,0.879915 0.0560384,0.368273 0.451785,0.0977068 0.405579,0.0428669 0.157428,0.513959 0.480912,0.335723 0.0778526,0.288394 0.8358,0.728314 0.343598,0.896125 0.0601715,0.300753 0.111453,0.422615 0.462724,0.0914315 0.363388,0 0.733952,0.49181 0.26925,1 0.425843,0.067789 0.445112,0.580075 0.547373,0.42376 0.922297,0.578161 0.081031,0.597634 0.18506,0.444776 0.167175,0.368436 0.341967,0.520108 0.952494,0.567363 0.508761,0.652402 0.18016,0.546359 0.369153,0.697671 0.118371,0.432466 0.267377,0.336824 0.448893,0.475565 0.0376175,0.659677 0.244067,0.784234 0.506084,0.344713 0.179051,0.901981 0.143457,0.921369 0.042019,0.638857 0.645326,0.479929 0.375072,0.63458 0.440314,0.334053 0.671923,0.52341 0.365757,0.535723 0.0382605,0.570017 0.188109,0.938614 0.56184,0.405752 0.863733,0.674795 0.611822,0.833219 0.164238,0.779372 0.422385,0.280096 0.54956,0.369139 0.184574,0.567836 0.30203,0.573133 0.207386,0.891903 0.206449,0.752153 0.377281,0.530734 0.187672,0.722793 0.504068,0.297026 0.348302,0.564394 0.34008,0.633574 0.165879,0.470958 0.161956,0.711236 0.168273,0.946809 0.399727,0.279714 0.123471,0.621772 0.357938,0.284108 0.305217,0.448436 0.570974,0.353336 0.601223,0.832368 0.642095,0.832637 0.184258,0.464863 0.481458,0.377977 0.166529,0.265943 0.52366,0.384398 0.329915,0.372845 0.144219,0.474695 0.494665,0.356303 0.44237,0.267253 0.210771,0.489471 0.416229,0.495946 0.141679,0.262306 0.254735,0.330774 0.199408,0.478139 0.3331,0.277111 0.173261,0.350019 0.150338,0.753641 0.334662,0.265184 0.163224,0.678513 0.454895,0.244366 0.316224,0.585627 0.206296,0.708218 0.315063,0.443537 0.139315,0.812962 0.27522,0.476596 0.0104817,0.600986 0.231406,0.34896 0.260278,0.520732 0.261281,0.500723 0.27139,0.301511 0.3079,0.289601 
1 1 1 2 1 2 1 1 1 2 2 2 2 1 3 2 3 0 3 1 3 1 1 2 1 0 3 3 3 1 1 1 1 3 1 2 1 1 2 1 3 2 1 3 0 2 3 2 1 1 2 2 3 1 2 1 1 2 3 1 2 2 2 2 2 1 1 1 1 2 3 1 2 2 1 1 3 3 3 2 3 1 1 0 0 3 3 2 3 0 1 1 3 2 1 0 1 3 2 0 0 2 3 1 2 1 0 0 1 2 2 1 2 2 2 0 2 1 1 1 2 2 1 3 0 2 0 0 1 2 2 2 0 2 1 0 2 0 2 2 0 2 0 0 0 2 0 0 0 0 0 0 0 0 0 2 0 3 0 0 0 0 2 0 0 0 2 2 0 2 0 0 2 0 0 0 0 
4


2000
10000
0.65
0
2
56 57 112 220 224 226 287 396 514 562 625 676 734 743 797 846 850 852 856 903 906 963 967 1015 1016 1022 1024 1079 1081 1082 1085 1128 1197 1305 1354 1356 1358 1417 1428 1469 1471 1477 1532 1533 1535 1592 1649 1656 1696 1702 1757 1769 1808 1873 1886 1925 1992 1994 2039 2041 2048 2101 2108 2224 2259 2260 2261 2262 2267 2326 2328 2332 2335 2448 2485 2488 2489 2555 2562 2565 2603 2668 2677 2714 2715 2716 2718 2824 2828 2830 2895 2904 2940 3002 3010 3014 3052 3123 3132 3241 3244 3349 3356 3357 3360 3460 3465 3467 3470 3473 3574 3581 3590 3683 3687 3694 3699 4030 4035 4142 4150 4154 4185 4262 4369 4591 4603 4605 4606 4607 4610 4704 4720 4819 4829 5049 5159 5283 5287 5402 5509 5837 5848 5853 5920 5952 6022 6078 6183 6191 6409 6529 6641 6644 6645 6646 6647 6749 6750 6760 6862 6975 7103 7204 7209 7315 7326 7426 7440 7556 7995 7996 8008 8801 8901 9128 9476 
