0.693942,0.458132 0.757333,0.533909 0.71116,0.130241 0.681388,0.513581 0.664668,0.461028 0.588864,0.0882661 0.839571,0.577239 0.513467,0.325004 0.639241,0.262339 0.595563,0.189942 0.789503,0.326041 0.955815,0.600034 0.791136,0.514431 0.572754,0.201879 1,0.477142 0.229648,0.424365 0.64746,0.374028 0.969907,0.609556 0.234591,0.440425 0.0824186,0.225755 0.12753,0.225335 0.449749,0.241642 0.664799,0.537804 0.588046,0.265252 0.0261664,0.181105 0.489647,0.215697 0.557355,0.226518 0.420126,0.249459 0.193818,0.281697 0.209374,0.275616 0.601457,0.475936 0.0879051,0.104172 0.867721,0.19797 0.798098,0.297802 0.804095,0.496415 0.74525,0.621613 0.675159,0.3531 0.809005,0.45404 0.951063,0.47251 0.712574,0.274382 0.880316,0.362209 0.7803,0.18235 0.876569,0.501606 0.284268,0.0877427 0.77451,0.15211 0.641439,0.44935 0.580947,0.298236 0.925623,0.314785 0.674728,0.317462 0.818002,0.339109 0.900455,0.354232 0.246093,0.218388 0.590027,0.046791 0.289438,0.16814 0.203048,0.0907411 0.586998,0.0280895 0.344936,0.255062 0.374208,0.364659 0,0.102333 0.016375,0.119488 0.36239,0.151133 0.984535,0.464815 0.891793,0.507885 0.80602,0.109062 0.851872,0.198948 0.302268,0.145695 0.936278,0.298809 0.131272,0.129807 0.711683,0.362372 0.380014,0.106334 0.622731,0.424045 0.788775,0.137512 0.856137,0.576309 0.759524,0.63717 0.110851,0.204575 0.742613,0.145312 0.582779,0 0.627788,0.337431 0.271881,0.151873 0.600135,0.36294 0.689006,0.285392 0.295408,0.198868 0.238912,0.0978105 0.408835,0.367938 0.471416,0.350364 0.114447,0.139882 0.0848711,0.151012 0.536188,0.392147 0.610451,0.307175 0.327404,0.24411 0.997992,0.427006 0.386359,0.255468 0.433209,0.389537 0.465615,0.334977 0.0579963,0.151237 0.241198,0.0780509 
2 2 0 2 2 0 2 0 0 0 2 2 2 0 1 1 2 2 1 1 1 0 0 0 1 0 0 0 1 1 1 1 0 0 2 2 0 2 2 2 2 0 2 1 0 2 0 2 2 2 2 0 0 1 1 0 0 0 1 1 1 2 2 0 0 1 1 1 1 1 2 0 2 2 1 0 0 0 1 0 0 1 1 0 0 1 1 0 0 1 1 0 0 0 1 1 
4


2000
10000
0.65
13
2
6578 6584 6694 6695 6707 6793 6822 6906 7131 7132 7246 7584 7586 7698 7924 8265 8266 8267 8378 8379 8493 8566 8718 8722 8832 8943 8950 9059 9174 9288 9397 9400 9406 9756 9773 9774 9860 9864 9870 9875 9884 9892 9894 9972 9979 9987 9991 9992 9997 10006 10008 10087 10095 10096 10097 10100 10101 10103 10104 10105 10109 10111 10117 10118 10127 10202 10204 10218 10226 10227 10232 10234 10236 10238 10316 10320 10341 10352 10461 10470 10474 10578 10696 10701 10702 10811 10812 10816 10822 10931 11051 11164 11166 11168 11281 11397 
