0.616287,0.189429 0.310011,0.492862 0.397486,0.470307 0.459044,0.735014 0.0908844,0.770096 0.295177,0.836433 0.23924,0.837362 0.43868,0.80104 0.19022,0.665962 0.244901,0.250575 0.571758,0.231908 0.485578,0.234997 0.497459,0.00762245 0.492564,0.362965 0.418598,0.911839 0.406386,0.150052 0.358116,0.5098 0.35007,0.793294 0.592132,0.212594 0.377308,0.52568 0.583084,0.464004 0.403363,0.742387 0.473405,0 0.621564,0.318126 0.1736,0.962491 0.252102,0.433124 0.419956,0.249268 0.284633,0.574243 0.431686,0.176246 0.648644,0.207593 0.315409,0.223171 0.184089,0.934773 0.302059,0.625642 0.380743,0.91154 0.320609,0.875615 0.0249222,0.470045 0.411572,0.683612 0.374101,0.962455 0.383229,0.598321 0.226919,0.451579 0.231176,1 0.286459,0.222422 0.21417,0.910193 0.42748,0.302676 0.409459,0.609273 0,0.409679 0.0173121,0.448203 0.200006,0.615237 0.271759,0.183291 0.131079,0.919936 0.101636,0.594226 0.198091,0.562232 0.457396,0.498799 0.571135,0.325609 0.226378,0.551677 0.463851,0.62758 0.289693,0.125923 0.0398697,0.688326 0.487127,0.128115 0.521209,0.300642 0.454435,0.260981 0.164624,0.527984 0.30264,0.896977 0.136893,0.598714 0.579712,0.370665 0.520503,0.161894 0.449206,0.0956237 0.0874757,0.734602 0.510819,0.0846849 0.0697041,0.807252 
1 3 0 2 3 3 3 2 2 0 1 1 0 1 3 0 0 3 1 0 0 2 0 1 3 0 0 3 0 1 0 3 3 2 3 3 3 2 0 0 3 0 3 1 3 1 3 1 2 3 2 3 0 1 1 3 2 2 0 1 1 3 3 0 1 1 0 2 0 3 
4


2000
10000
0.65
9
2
67 91 400 402 412 414 415 535 782 892 962 964 1180 1293 1542 1562 1738 1741 2101 2215 2344 2520 2554 3015 3540 3643 3807 4020 4131 4198 4203 4216 4315 4318 4327 4331 4425 4430 4434 4534 4536 4670 4702 4756 4787 4891 4898 5000 5091 5100 5109 5213 5220 5263 5426 5443 5444 5462 5649 5653 5654 5686 5882 5905 5933 6098 6882 6926 8943 11766 
